13 튜플(Tuples) – 챗GPT 코딩2
…
romeo_full_freq <- romeo_split %>% unlist() %>%
  table() %>%
  as_tibble() %>% 
  set_names(c("key", "value")) %>% 
  arrange(desc(value)) %>% 
  slice_head(n=10)

# romeo_full_freq

파일을 읽고 각 단어를 문서의 단어 빈도수는 전처리 로직으로 구두점을 제거하고 모두 소문자로 변환한 후에 table() 함수로 단어별 빈도수를 계산하고 데이터프레임으로 변환 후 고빈도 단어 10개를 추출한다.

이제 단어 빈도 분석을 위해서 작성한 프로그램의 마지막 출력결과는 원하는 바를 완수한 것처럼 보인다.

#> # A tibble: 10 × 2
#>   key   value
#>   <chr> <int>
#> 1 that     14
#> 2 is       13
#> 3 her      11
#> 4 the      11
#> 5 and      10
#> 6 she       9
#> # ℹ 4 more rows
…
